{
  "page": 1,
  "total_results": 234,
  "total_pages": 12,
  "results": [
    {
      "popularity": 2.537,
      "vote_count": 19,
      "video": false,
      "poster_path": "/z0B4c540OjIUdKRoiG4TmWe17k5.jpg",
      "id": 46879,
      "adult": false,
      "backdrop_path": null,
      "original_language": "es",
      "original_title": "Regreso a Moira",
      "genre_ids": [
        18,
        27,
        9648
      ],
      "title": "Regreso a Moira",
      "vote_average": 5.6,
      "overview": "",
      "release_date": "2006-09-27"
    },
    {
      "popularity": 1.614,
      "vote_count": 5,
      "video": false,
      "poster_path": "/reozKWfrxIyyIdbjDXNGk5PBxuK.jpg",
      "id": 232074,
      "adult": false,
      "backdrop_path": null,
      "original_language": "es",
      "original_title": "El regreso",
      "genre_ids": [
        18
      ],
      "title": "El regreso",
      "vote_average": 6.1,
      "overview": "",
      "release_date": "2011-08-05"
    },
    {
      "popularity": 1.361,
      "vote_count": 5,
      "video": false,
      "poster_path": "/palwJJWxjqVqNjfXYhE5sMsaFKg.jpg",
      "id": 442272,
      "adult": false,
      "backdrop_path": null,
      "original_language": "es",
      "original_title": "El regreso del monstruo",
      "genre_ids": [
        27
      ],
      "title": "El regreso del monstruo",
      "vote_average": 7.2,
      "overview": "",
      "release_date": "1958-02-16"
    },
    {
      "popularity": 0.6,
      "vote_count": 0,
      "video": false,
      "poster_path": "/pUURhadT60uCWOlY03LLedEkYs5.jpg",
      "id": 667545,
      "adult": false,
      "backdrop_path": null,
      "original_language": "en",
      "original_title": "Regreso",
      "genre_ids": [],
      "title": "Regreso",
      "vote_average": 0,
      "overview": "",
      "release_date": ""
    },
    {
      "popularity": 0.877,
      "vote_count": 0,
      "video": false,
      "poster_path": "/knZHCQUN37pMoYg6rzlf2kma0ga.jpg",
      "id": 458192,
      "adult": false,
      "backdrop_path": null,
      "original_language": "es",
      "original_title": "El regreso",
      "genre_ids": [
        18
      ],
      "title": "El regreso",
      "vote_average": 0,
      "overview": "",
      "release_date": "1950-09-21"
    },
    {
      "popularity": 0.872,
      "vote_count": 0,
      "video": false,
      "poster_path": "/ssVGHiiHJYOSfQFyBfJdITGTtmP.jpg",
      "id": 439082,
      "adult": false,
      "backdrop_path": null,
      "original_language": "es",
      "original_title": "El regreso",
      "genre_ids": [],
      "title": "El regreso",
      "vote_average": 0,
      "overview": "",
      "release_date": "2008-02-03"
    },
    {
      "popularity": 0.84,
      "vote_count": 1,
      "video": false,
      "poster_path": null,
      "id": 459747,
      "adult": false,
      "backdrop_path": null,
      "original_language": "es",
      "original_title": "El regreso",
      "genre_ids": [
        27
      ],
      "title": "El regreso",
      "vote_average": 6,
      "overview": "",
      "release_date": "1967-12-15"
    },
    {
      "popularity": 0.6,
      "vote_count": 1,
      "video": false,
      "poster_path": null,
      "id": 72428,
      "adult": false,
      "backdrop_path": null,
      "original_language": "es",
      "original_title": "Midachi - El regreso del humor",
      "genre_ids": [
        35
      ],
      "title": "Midachi - El regreso del humor",
      "vote_average": 2.5,
      "overview": "",
      "release_date": "2005-08-05"
    },
    {
      "popularity": 0.6,
      "vote_count": 0,
      "video": false,
      "poster_path": null,
      "id": 281650,
      "adult": false,
      "backdrop_path": null,
      "original_language": "es",
      "original_title": "El regreso",
      "genre_ids": [
        18
      ],
      "title": "El regreso",
      "vote_average": 0,
      "overview": "",
      "release_date": "2013-08-23"
    },
    {
      "popularity": 0.6,
      "vote_count": 2,
      "video": false,
      "poster_path": "/nOsLfLtbh5XLB34iEeSgV3NRPBn.jpg",
      "id": 554735,
      "adult": false,
      "backdrop_path": null,
      "original_language": "es",
      "original_title": "Regreso al silencio",
      "genre_ids": [
        80,
        18,
        9648
      ],
      "title": "Regreso al silencio",
      "vote_average": 6,
      "overview": "",
      "release_date": "1967-01-30"
    },
    {
      "popularity": 0.692,
      "vote_count": 2,
      "video": false,
      "poster_path": "/dQYt5gW3zY8eo3rTYMf0rqgMoam.jpg",
      "id": 216979,
      "adult": false,
      "backdrop_path": "/mOl8pDGiBajIIFGfaHIWr52qCwA.jpg",
      "original_language": "es",
      "original_title": "Regreso a «Viridiana»",
      "genre_ids": [
        99
      ],
      "title": "Regreso a «Viridiana»",
      "vote_average": 6,
      "overview": "",
      "release_date": "2011-05-18"
    },
    {
      "popularity": 0.604,
      "vote_count": 0,
      "video": false,
      "poster_path": "/pHf5bI4WGcdCIyDW5cDL5uwm70n.jpg",
      "id": 503554,
      "adult": false,
      "backdrop_path": "/9sSQPXgVOWg4DgYxz9WdbmUTahj.jpg",
      "original_language": "es",
      "original_title": "Regreso a Marte",
      "genre_ids": [
        99
      ],
      "title": "Regreso a Marte",
      "vote_average": 0,
      "overview": "",
      "release_date": "2016-02-06"
    },
    {
      "popularity": 0.606,
      "id": 483968,
      "video": false,
      "vote_count": 0,
      "vote_average": 0,
      "title": "Regreso al origen",
      "release_date": "2017-10-27",
      "original_language": "es",
      "original_title": "Regreso al origen",
      "genre_ids": [
        99
      ],
      "backdrop_path": null,
      "adult": false,
      "overview": "",
      "poster_path": "/nOAV0SKYXvQJZ3wOEilXeetcIgT.jpg"
    },
    {
      "popularity": 0.84,
      "id": 603374,
      "video": false,
      "vote_count": 2,
      "vote_average": 6,
      "title": "Upa! 2: El regreso",
      "release_date": "2015-04-18",
      "original_language": "es",
      "original_title": "Upa! 2: El regreso",
      "genre_ids": [
        35
      ],
      "backdrop_path": null,
      "adult": false,
      "overview": "",
      "poster_path": "/hHSrIDZGiEszwlCoBkeyF35dN4l.jpg"
    },
    {
      "popularity": 1.176,
      "vote_count": 1,
      "video": false,
      "poster_path": "/rKlGYOM08zQNmK4KEeFz2R7l6Kp.jpg",
      "id": 505599,
      "adult": false,
      "backdrop_path": null,
      "original_language": "en",
      "original_title": "Patricia: el regreso del sueño",
      "genre_ids": [],
      "title": "Patricia: el regreso del sueño",
      "vote_average": 5,
      "overview": "",
      "release_date": "2017-09-28"
    },
    {
      "popularity": 0.6,
      "vote_count": 0,
      "video": false,
      "poster_path": "/pPMKPUs5Lso7qe3LLqOiGr6DHg1.jpg",
      "id": 492799,
      "adult": false,
      "backdrop_path": null,
      "original_language": "es",
      "original_title": "Regreso al Horizonte",
      "genre_ids": [],
      "title": "Regreso al Horizonte",
      "vote_average": 0,
      "overview": "",
      "release_date": "2017-11-23"
    },
    {
      "popularity": 0.6,
      "vote_count": 0,
      "video": true,
      "poster_path": "/bQwiqndqrD4TRP05fvu12G1Todv.jpg",
      "id": 702165,
      "adult": false,
      "backdrop_path": null,
      "original_language": "es",
      "original_title": "Imperio Regreso vivo",
      "genre_ids": [],
      "title": "Imperio Regreso vivo",
      "vote_average": 0,
      "overview": "",
      "release_date": ""
    },
    {
      "popularity": 0.84,
      "vote_count": 0,
      "video": false,
      "poster_path": "/1xwwxWGm01haF5hsChtLntbTmU4.jpg",
      "id": 189307,
      "adult": false,
      "backdrop_path": null,
      "original_language": "es",
      "original_title": "Regreso del más allá",
      "genre_ids": [
        80,
        27
      ],
      "title": "Regreso del más allá",
      "vote_average": 0,
      "overview": "",
      "release_date": "1982-10-11"
    },
    {
      "popularity": 0.827,
      "id": 392145,
      "video": false,
      "vote_count": 0,
      "vote_average": 0,
      "title": "El sueño del regreso",
      "release_date": "2005-12-22",
      "original_language": "es",
      "original_title": "El sueño del regreso",
      "genre_ids": [
        18,
        35
      ],
      "backdrop_path": null,
      "adult": false,
      "overview": "",
      "poster_path": null
    },
    {
      "popularity": 0.804,
      "vote_count": 0,
      "video": false,
      "poster_path": null,
      "id": 738924,
      "adult": false,
      "backdrop_path": null,
      "original_language": "en",
      "original_title": "Regreso a Casa Ros",
      "genre_ids": [],
      "title": "Regreso a Casa Ros",
      "vote_average": 0,
      "overview": "",
      "release_date": ""
    }
  ]
}